Lab7/vscode/tb_part1.vcd
$date
	Tue Sep 30 06:36:27 2025
$end
$version
	Icarus Verilog
$end
$timescale
	1ps
$end
$scope module tb_part1 $end
$var wire 16 ! Q [15:0] $end
$var reg 1 " clk $end
$var reg 1 # en $end
$var reg 1 $ rst_n $end
$scope module uut $end
$var wire 1 " clk $end
$var wire 1 # en $end
$var wire 1 $ rst_n $end
$var wire 16 % T_i [15:0] $end
$var wire 16 & Q [15:0] $end
$scope begin TFF_ARRAY[0] $end
$var parameter 2 ' i $end
$scope module tff_inst $end
$var wire 1 ( Qn $end
$var wire 1 ) T $end
$var wire 1 " clk $end
$var wire 1 # en $end
$var wire 1 $ rst_n $end
$var reg 1 * Q $end
$upscope $end
$upscope $end
$scope begin TFF_ARRAY[1] $end
$var parameter 2 + i $end
$scope module tff_inst $end
$var wire 1 , Qn $end
$var wire 1 - T $end
$var wire 1 " clk $end
$var wire 1 # en $end
$var wire 1 $ rst_n $end
$var reg 1 . Q $end
$upscope $end
$upscope $end
$scope begin TFF_ARRAY[2] $end
$var parameter 3 / i $end
$scope module tff_inst $end
$var wire 1 0 Qn $end
$var wire 1 1 T $end
$var wire 1 " clk $end
$var wire 1 # en $end
$var wire 1 $ rst_n $end
$var reg 1 2 Q $end
$upscope $end
$upscope $end
$scope begin TFF_ARRAY[3] $end
$var parameter 3 3 i $end
$scope module tff_inst $end
$var wire 1 4 Qn $end
$var wire 1 5 T $end
$var wire 1 " clk $end
$var wire 1 # en $end
$var wire 1 $ rst_n $end
$var reg 1 6 Q $end
$upscope $end
$upscope $end
$scope begin TFF_ARRAY[4] $end
$var parameter 4 7 i $end
$scope module tff_inst $end
$var wire 1 8 Qn $end
$var wire 1 9 T $end
$var wire 1 " clk $end
$var wire 1 # en $end
$var wire 1 $ rst_n $end
$var reg 1 : Q $end
$upscope $end
$upscope $end
$scope begin TFF_ARRAY[5] $end
$var parameter 4 ; i $end
$scope module tff_inst $end
$var wire 1 < Qn $end
$var wire 1 = T $end
$var wire 1 " clk $end
$var wire 1 # en $end
$var wire 1 $ rst_n $end
$var reg 1 > Q $end
$upscope $end
$upscope $end
$scope begin TFF_ARRAY[6] $end
$var parameter 4 ? i $end
$scope module tff_inst $end
$var wire 1 @ Qn $end
$var wire 1 A T $end
$var wire 1 " clk $end
$var wire 1 # en $end
$var wire 1 $ rst_n $end
$var reg 1 B Q $end
$upscope $end
$upscope $end
$scope begin TFF_ARRAY[7] $end
$var parameter 4 C i $end
$scope module tff_inst $end
$var wire 1 D Qn $end
$var wire 1 E T $end
$var wire 1 " clk $end
$var wire 1 # en $end
$var wire 1 $ rst_n $end
$var reg 1 F Q $end
$upscope $end
$upscope $end
$scope begin TFF_ARRAY[8] $end
$var parameter 5 G i $end
$scope module tff_inst $end
$var wire 1 H Qn $end
$var wire 1 I T $end
$var wire 1 " clk $end
$var wire 1 # en $end
$var wire 1 $ rst_n $end
$var reg 1 J Q $end
$upscope $end
$upscope $end
$scope begin TFF_ARRAY[9] $end
$var parameter 5 K i $end
$scope module tff_inst $end
$var wire 1 L Qn $end
$var wire 1 M T $end
$var wire 1 " clk $end
$var wire 1 # en $end
$var wire 1 $ rst_n $end
$var reg 1 N Q $end
$upscope $end
$upscope $end
$scope begin TFF_ARRAY[10] $end
$var parameter 5 O i $end
$scope module tff_inst $end
$var wire 1 P Qn $end
$var wire 1 Q T $end
$var wire 1 " clk $end
$var wire 1 # en $end
$var wire 1 $ rst_n $end
$var reg 1 R Q $end
$upscope $end
$upscope $end
$scope begin TFF_ARRAY[11] $end
$var parameter 5 S i $end
$scope module tff_inst $end
$var wire 1 T Qn $end
$var wire 1 U T $end
$var wire 1 " clk $end
$var wire 1 # en $end
$var wire 1 $ rst_n $end
$var reg 1 V Q $end
$upscope $end
$upscope $end
$scope begin TFF_ARRAY[12] $end
$var parameter 5 W i $end
$scope module tff_inst $end
$var wire 1 X Qn $end
$var wire 1 Y T $end
$var wire 1 " clk $end
$var wire 1 # en $end
$var wire 1 $ rst_n $end
$var reg 1 Z Q $end
$upscope $end
$upscope $end
$scope begin TFF_ARRAY[13] $end
$var parameter 5 [ i $end
$scope module tff_inst $end
$var wire 1 \ Qn $end
$var wire 1 ] T $end
$var wire 1 " clk $end
$var wire 1 # en $end
$var wire 1 $ rst_n $end
$var reg 1 ^ Q $end
$upscope $end
$upscope $end
$scope begin TFF_ARRAY[14] $end
$var parameter 5 _ i $end
$scope module tff_inst $end
$var wire 1 ` Qn $end
$var wire 1 a T $end
$var wire 1 " clk $end
$var wire 1 # en $end
$var wire 1 $ rst_n $end
$var reg 1 b Q $end
$upscope $end
$upscope $end
$scope begin TFF_ARRAY[15] $end
$var parameter 5 c i $end
$scope module tff_inst $end
$var wire 1 d Qn $end
$var wire 1 e T $end
$var wire 1 " clk $end
$var wire 1 # en $end
$var wire 1 $ rst_n $end
$var reg 1 f Q $end
$upscope $end
$upscope $end
$upscope $end
$upscope $end
$enddefinitions $end
$comment Show the parameter values. $end
$dumpall
b1111 c
b1110 _
b1101 [
b1100 W
b1011 S
b1010 O
b1001 K
b1000 G
b111 C
b110 ?
b101 ;
b100 7
b11 3
b10 /
b1 +
b0 '
$end
#0
$dumpvars
0f
0e
1d
0b
0a
1`
0^
0]
1\
0Z
0Y
1X
0V
0U
1T
0R
0Q
1P
0N
0M
1L
0J
0I
1H
0F
0E
1D
0B
0A
1@
0>
0=
1<
0:
09
18
06
05
14
02
01
10
0.
0-
1,
0*
1)
1(
b0 &
b1 %
0$
0#
0"
b0 !
$end
#5000
1"
#10000
0"
#12000
1#
1$
#15000
1-
b11 %
0(
b1 !
b1 &
1*
1"
#20000
0"
#25000
0-
b1 %
0,
1(
1.
b10 !
b10 &
0*
1"
#30000
0"
#35000
11
1-
b111 %
0(
b11 !
b11 &
1*
1"
#40000
0"
#45000
01
0-
b1 %
00
1,
1(
12
0.
b100 !
b100 &
0*
1"
#50000
0"
#55000
1-
b11 %
0(
b101 !
b101 &
1*
1"
#60000
0"
#65000
0-
b1 %
0,
1(
1.
b110 !
b110 &
0*
1"
#70000
0"
#75000
11
15
1-
b1111 %
0(
b111 !
b111 &
1*
1"
#80000
0"
#85000
01
05
0-
b1 %
04
10
1,
1(
16
02
0.
b1000 !
b1000 &
0*
1"
#90000
0"
#95000
1-
b11 %
0(
b1001 !
b1001 &
1*
1"
#100000
0"
#105000
0-
b1 %
0,
1(
1.
b1010 !
b1010 &
0*
1"
#110000
0"
#115000
11
1-
b111 %
0(
b1011 !
b1011 &
1*
1"
#120000
0"
#125000
01
0-
b1 %
00
1,
1(
12
0.
b1100 !
b1100 &
0*
1"
#130000
0"
#135000
1-
b11 %
0(
b1101 !
b1101 &
1*
1"
#140000
0"
#145000
0-
b1 %
0,
1(
1.
b1110 !
b1110 &
0*
1"
#150000
0"
#155000
11
15
19
1-
b11111 %
0(
b1111 !
b1111 &
1*
1"
#160000
0"
#165000
01
05
09
0-
b1 %
08
14
10
1,
1(
1:
06
02
0.
b10000 !
b10000 &
0*
1"
#170000
0"
#175000
1-
b11 %
0(
b10001 !
b10001 &
1*
1"
#180000
0"
#185000
0-
b1 %
0,
1(
1.
b10010 !
b10010 &
0*
1"
#190000
0"
#195000
11
1-
b111 %
0(
b10011 !
b10011 &
1*
1"
#200000
0"
#205000
01
0-
b1 %
00
1,
1(
12
0.
b10100 !
b10100 &
0*
1"
#210000
0"
#215000
1-
b11 %
0(
b10101 !
b10101 &
1*
1"
#220000
0"
#225000
0-
b1 %
0,
1(
1.
b10110 !
b10110 &
0*
1"
#230000
0"
#235000
11
15
1-
b1111 %
0(
b10111 !
b10111 &
1*
1"
#240000
0"
#245000
01
05
0-
b1 %
04
10
1,
1(
16
02
0.
b11000 !
b11000 &
0*
1"
#250000
0"
#255000
1-
b11 %
0(
b11001 !
b11001 &
1*
1"
#260000
0"
#265000
0-
b1 %
0,
1(
1.
b11010 !
b11010 &
0*
1"
#270000
0"
#275000
11
1-
b111 %
0(
b11011 !
b11011 &
1*
1"
#280000
0"
#285000
01
0-
b1 %
00
1,
1(
12
0.
b11100 !
b11100 &
0*
1"
#290000
0"
#295000
1-
b11 %
0(
b11101 !
b11101 &
1*
1"
#300000
0"
#305000
0-
b1 %
0,
1(
1.
b11110 !
b11110 &
0*
1"
#310000
0"
#315000
11
15
19
1=
1-
b111111 %
0(
b11111 !
b11111 &
1*
1"
#320000
0"
#325000
01
05
09
0=
0-
b1 %
0<
18
14
10
1,
1(
1>
0:
06
02
0.
b100000 !
b100000 &
0*
1"
#330000
0"
#335000
1-
b11 %
0(
b100001 !
b100001 &
1*
1"
#340000
0"
#345000
0-
b1 %
0,
1(
1.
b100010 !
b100010 &
0*
1"
#350000
0"
#355000
11
1-
b111 %
0(
b100011 !
b100011 &
1*
1"
#360000
0"
#365000
01
0-
b1 %
00
1,
1(
12
0.
b100100 !
b100100 &
0*
1"
#370000
0"
#375000
1-
b11 %
0(
b100101 !
b100101 &
1*
1"
#380000
0"
#385000
0-
b1 %
0,
1(
1.
b100110 !
b100110 &
0*
1"
#390000
0"
#395000
11
15
1-
b1111 %
0(
b100111 !
b100111 &
1*
1"
#400000
0"
#405000
01
05
0-
b1 %
04
10
1,
1(
16
02
0.
b101000 !
b101000 &
0*
1"
#410000
0"
#415000
1-
b11 %
0(
b101001 !
b101001 &
1*
1"
#420000
0"
#425000
0-
b1 %
0,
1(
1.
b101010 !
b101010 &
0*
1"
#430000
0"
#435000
11
1-
b111 %
0(
b101011 !
b101011 &
1*
1"
#440000
0"
#445000
01
0-
b1 %
00
1,
1(
12
0.
b101100 !
b101100 &
0*
1"
#450000
0"
#455000
1-
b11 %
0(
b101101 !
b101101 &
1*
1"
#460000
0"
#465000
0-
b1 %
0,
1(
1.
b101110 !
b101110 &
0*
1"
#470000
0"
#475000
11
15
19
1-
b11111 %
0(
b101111 !
b101111 &
1*
1"
#480000
0"
#485000
01
05
09
0-
b1 %
08
14
10
1,
1(
1:
06
02
0.
b110000 !
b110000 &
0*
1"
#490000
0"
#495000
1-
b11 %
0(
b110001 !
b110001 &
1*
1"
#500000
0"
#505000
0-
b1 %
0,
1(
1.
b110010 !
b110010 &
0*
1"
#510000
0"
#512000
0#
#515000
1"
#520000
0"
#525000
1"
#530000
0"
#535000
1"
#540000
0"
#545000
1"
#550000
0"
#555000
1"
#560000
0"
#562000
1#
#565000
11
1-
b111 %
0(
b110011 !
b110011 &
1*
1"
#570000
0"
#575000
01
0-
b1 %
1(
1,
00
0*
0.
b110100 !
b110100 &
12
1"
#580000
0"
#585000
1-
b11 %
0(
b110101 !
b110101 &
1*
1"
#590000
0"
#595000
0-
b1 %
1(
0,
0*
b110110 !
b110110 &
1.
1"
#600000
0"
#605000
11
15
1-
b1111 %
0(
b110111 !
b110111 &
1*
1"
#610000
0"
#615000
05
01
0-
b1 %
1(
1,
10
04
0*
0.
02
b111000 !
b111000 &
16
1"
#620000
0"
#625000
1-
b11 %
0(
b111001 !
b111001 &
1*
1"
#630000
0"
#635000
0-
b1 %
1(
0,
0*
b111010 !
b111010 &
1.
1"
#640000
0"
#645000
11
1-
b111 %
0(
b111011 !
b111011 &
1*
1"
#650000
0"
#655000
01
0-
b1 %
1(
1,
00
0*
0.
b111100 !
b111100 &
12
1"
#660000
0"
#662000
1<
18
14
10
0>
0:
06
b0 !
b0 &
02
0$
#665000
1"
#670000
0"
#672000
1$
#675000
1-
b11 %
0(
b1 !
b1 &
1*
1"
#680000
0"
#685000
0-
b1 %
1(
0,
0*
b10 !
b10 &
1.
1"
#690000
0"
#695000
11
1-
b111 %
0(
b11 !
b11 &
1*
1"
#700000
0"
#705000
01
0-
b1 %
1(
1,
00
0*
0.
b100 !
b100 &
12
1"
#710000
0"
#715000
1-
b11 %
0(
b101 !
b101 &
1*
1"
#720000
0"
#725000
0-
b1 %
1(
0,
0*
b110 !
b110 &
1.
1"
#730000
0"
#735000
11
15
1-
b1111 %
0(
b111 !
b111 &
1*
1"
#740000
0"
#745000
05
01
0-
b1 %
1(
1,
10
04
0*
0.
02
b1000 !
b1000 &
16
1"
#750000
0"
#755000
1-
b11 %
0(
b1001 !
b1001 &
1*
1"
#760000
0"
#765000
0-
b1 %
1(
0,
0*
b1010 !
b1010 &
1.
1"
#770000
0"
#775000
11
1-
b111 %
0(
b1011 !
b1011 &
1*
1"
#780000
0"
#785000
01
0-
b1 %
1(
1,
00
0*
0.
b1100 !
b1100 &
12
1"
#790000
0"
#795000
1-
b11 %
0(
b1101 !
b1101 &
1*
1"
#800000
0"
#805000
0-
b1 %
1(
0,
0*
b1110 !
b1110 &
1.
1"
#810000
0"
#815000
11
15
19
1-
b11111 %
0(
b1111 !
b1111 &
1*
1"
#820000
0"
#825000
05
09
01
0-
b1 %
1(
1,
10
14
08
0*
0.
02
06
b10000 !
b10000 &
1:
1"
#830000
0"
#835000
1-
b11 %
0(
b10001 !
b10001 &
1*
1"
#840000
0"
#845000
0-
b1 %
1(
0,
0*
b10010 !
b10010 &
1.
1"
#850000
0"
#855000
11
1-
b111 %
0(
b10011 !
b10011 &
1*
1"
#860000
0"
#865000
01
0-
b1 %
1(
1,
00
0*
0.
b10100 !
b10100 &
12
1"
