Lab8/vscode/part3_tb.vcd
$date
	Tue Sep 30 15:33:59 2025
$end
$version
	Icarus Verilog
$end
$timescale
	1ps
$end
$scope module part3_tb $end
$var wire 16 ! LEDR [15:0] $end
$var wire 2 " LEDG [1:0] $end
$var wire 7 # HEX7 [6:0] $end
$var wire 7 $ HEX6 [6:0] $end
$var wire 7 % HEX5 [6:0] $end
$var wire 7 & HEX4 [6:0] $end
$var wire 7 ' HEX3 [6:0] $end
$var wire 7 ( HEX2 [6:0] $end
$var reg 1 ) CLOCK_50 $end
$var reg 2 * KEY [1:0] $end
$var reg 16 + SW [15:0] $end
$scope module uut $end
$var wire 1 ) CLOCK_50 $end
$var wire 2 , KEY [1:0] $end
$var wire 2 - LEDG [1:0] $end
$var wire 16 . LEDR [15:0] $end
$var wire 16 / SW [15:0] $end
$var wire 1 0 clk $end
$var wire 1 1 start_stop $end
$var wire 6 2 sec [5:0] $end
$var wire 4 3 s_tens [3:0] $end
$var wire 4 4 s_ones [3:0] $end
$var wire 1 5 rst_n $end
$var wire 6 6 minute [5:0] $end
$var wire 4 7 m_tens [3:0] $end
$var wire 4 8 m_ones [3:0] $end
$var wire 1 9 led_count $end
$var wire 5 : hour [4:0] $end
$var wire 4 ; h_tens [3:0] $end
$var wire 4 < h_ones [3:0] $end
$var wire 7 = HEX7 [6:0] $end
$var wire 7 > HEX6 [6:0] $end
$var wire 7 ? HEX5 [6:0] $end
$var wire 7 @ HEX4 [6:0] $end
$var wire 7 A HEX3 [6:0] $end
$var wire 7 B HEX2 [6:0] $end
$var reg 1 C prev_start_stop $end
$var reg 1 D running $end
$scope module conv_h $end
$var wire 16 E bin [15:0] $end
$var wire 4 F bcd5 [3:0] $end
$var wire 4 G bcd4 [3:0] $end
$var wire 4 H bcd3 [3:0] $end
$var wire 4 I bcd2 [3:0] $end
$var wire 4 J bcd1 [3:0] $end
$var reg 36 K shift [35:0] $end
$var integer 32 L i [31:0] $end
$upscope $end
$scope module conv_m $end
$var wire 16 M bin [15:0] $end
$var wire 4 N bcd5 [3:0] $end
$var wire 4 O bcd4 [3:0] $end
$var wire 4 P bcd3 [3:0] $end
$var wire 4 Q bcd2 [3:0] $end
$var wire 4 R bcd1 [3:0] $end
$var reg 36 S shift [35:0] $end
$var integer 32 T i [31:0] $end
$upscope $end
$scope module conv_s $end
$var wire 16 U bin [15:0] $end
$var wire 4 V bcd5 [3:0] $end
$var wire 4 W bcd4 [3:0] $end
$var wire 4 X bcd3 [3:0] $end
$var wire 4 Y bcd2 [3:0] $end
$var wire 4 Z bcd1 [3:0] $end
$var reg 36 [ shift [35:0] $end
$var integer 32 \ i [31:0] $end
$upscope $end
$scope module seg_h1 $end
$var wire 4 ] C [3:0] $end
$var reg 7 ^ Display [6:0] $end
$upscope $end
$scope module seg_h2 $end
$var wire 4 _ C [3:0] $end
$var reg 7 ` Display [6:0] $end
$upscope $end
$scope module seg_m1 $end
$var wire 4 a C [3:0] $end
$var reg 7 b Display [6:0] $end
$upscope $end
$scope module seg_m2 $end
$var wire 4 c C [3:0] $end
$var reg 7 d Display [6:0] $end
$upscope $end
$scope module seg_s1 $end
$var wire 4 e C [3:0] $end
$var reg 7 f Display [6:0] $end
$upscope $end
$scope module seg_s2 $end
$var wire 4 g C [3:0] $end
$var reg 7 h Display [6:0] $end
$upscope $end
$scope module t1 $end
$var wire 1 0 clk $end
$var wire 1 D enable $end
$var wire 5 i hour_o [4:0] $end
$var wire 16 j i_data [15:0] $end
$var wire 6 k minute_o [5:0] $end
$var wire 1 5 rst_n $end
$var wire 6 l sec_o [5:0] $end
$var parameter 32 m COUNT_1S $end
$var parameter 32 n COUNT_500MS $end
$var reg 26 o blink_counter [25:0] $end
$var reg 32 p counter_for_sec [31:0] $end
$var reg 5 q hour [4:0] $end
$var reg 1 9 led_count $end
$var reg 6 r minute [5:0] $end
$var reg 6 s sec [5:0] $end
$upscope $end
$upscope $end
$upscope $end
$enddefinitions $end
$comment Show the parameter values. $end
$dumpall
b110010 n
b1100100 m
$end
#0
$dumpvars
bx s
bx r
bx q
bx p
bx o
bx l
bx k
b110010001000000 j
bx i
b1111111 h
b0xx g
bx f
bx e
b1111111 d
b0xx c
bx b
bx a
b1111111 `
b0x _
bx ^
bx ]
b10000 \
b0xxxxxx0000000000000000 [
bx Z
b0xx Y
b0 X
b0 W
b0 V
b0xxxxxx U
b10000 T
b0xxxxxx0000000000000000 S
bx R
b0xx Q
b0 P
b0 O
b0 N
b0xxxxxx M
b10000 L
b0xxxxx0000000000000000 K
bx J
b0x I
b0 H
b0 G
b0 F
b0xxxxx E
xD
xC
bx B
b1111111 A
bx @
b1111111 ?
bx >
b1111111 =
bx <
b0x ;
bx :
x9
bx 8
b0xx 7
bx 6
15
bx 4
b0xx 3
bx 2
01
00
b110010001000000 /
b110010001000000 .
b1 -
b1 ,
b110010001000000 +
b1 *
0)
bx (
b1111111 '
bx &
b1111111 %
bx $
b1111111 #
b1 "
b110010001000000 !
$end
#10000
0C
10
1)
#20000
00
0)
#30000
10
1)
#40000
00
0)
#50000
10
1)
#60000
00
0)
#70000
10
1)
#80000
00
0)
#90000
10
1)
#100000
00
0)
#110000
10
1)
#120000
00
0)
#130000
10
1)
#140000
00
0)
#150000
10
1)
#160000
00
0)
#170000
10
1)
#180000
00
0)
#190000
10
1)
#200000
00
0)
#210000
10
1)
#220000
00
0)
#230000
10
1)
#240000
11
00
0)
b11 "
b11 -
b11 *
b11 ,
#250000
1C
10
1)
#260000
00
0)
#270000
10
1)
#280000
00
0)
#290000
10
1)
#300000
00
0)
#310000
10
1)
#320000
00
0)
#330000
10
1)
#340000
00
0)
#350000
10
1)
#360000
00
0)
#370000
10
1)
#380000
00
0)
#390000
10
1)
#400000
00
0)
#410000
10
1)
#420000
00
0)
#430000
10
1)
#440000
00
0)
#450000
10
1)
#460000
00
0)
#470000
10
1)
#480000
00
0)
#490000
10
1)
#500000
00
0)
#510000
10
1)
#520000
00
0)
#530000
10
1)
#540000
00
0)
#550000
10
1)
#560000
00
0)
#570000
10
1)
#580000
00
0)
#590000
10
1)
#600000
00
0)
#610000
10
1)
#620000
00
0)
#630000
10
1)
#640000
00
0)
#650000
10
1)
#660000
00
0)
#670000
10
1)
#680000
00
0)
#690000
10
1)
#700000
00
0)
#710000
10
1)
#720000
00
0)
#730000
10
1)
#740000
00
0)
#750000
10
1)
#760000
00
0)
#770000
10
1)
#780000
00
0)
#790000
10
1)
#800000
00
0)
#810000
10
1)
#820000
00
0)
#830000
10
1)
#840000
00
0)
#850000
10
1)
#860000
00
0)
#870000
10
1)
#880000
00
0)
#890000
10
1)
#900000
00
0)
#910000
10
1)
#920000
00
0)
#930000
10
1)
#940000
00
0)
#950000
10
1)
#960000
00
0)
#970000
10
1)
#980000
00
0)
#990000
10
1)
#1000000
00
0)
#1010000
10
1)
#1020000
00
0)
#1030000
10
1)
#1040000
00
0)
#1050000
10
1)
#1060000
00
0)
#1070000
10
1)
#1080000
00
0)
#1090000
10
1)
#1100000
00
0)
#1110000
10
1)
#1120000
00
0)
#1130000
10
1)
#1140000
00
0)
#1150000
10
1)
#1160000
00
0)
#1170000
10
1)
#1180000
00
0)
#1190000
10
1)
#1200000
00
0)
#1210000
10
1)
#1220000
00
0)
#1230000
10
1)
#1240000
00
0)
#1250000
10
1)
#1260000
00
0)
#1270000
10
1)
#1280000
00
0)
#1290000
10
1)
#1300000
00
0)
#1310000
10
1)
#1320000
00
0)
#1330000
10
1)
#1340000
00
0)
#1350000
10
1)
#1360000
00
0)
#1370000
10
1)
#1380000
00
0)
#1390000
10
1)
#1400000
00
0)
#1410000
10
1)
#1420000
00
0)
#1430000
10
1)
#1440000
00
0)
#1450000
10
1)
#1460000
00
0)
#1470000
10
1)
#1480000
00
0)
#1490000
10
1)
#1500000
00
0)
#1510000
10
1)
#1520000
00
0)
#1530000
10
1)
#1540000
00
0)
#1550000
10
1)
#1560000
00
0)
#1570000
10
1)
#1580000
00
0)
#1590000
10
1)
#1600000
00
0)
#1610000
10
1)
#1620000
00
0)
#1630000
10
1)
#1640000
00
0)
#1650000
10
1)
#1660000
00
0)
#1670000
10
1)
#1680000
00
0)
#1690000
10
1)
#1700000
00
0)
#1710000
10
1)
#1720000
00
0)
#1730000
10
1)
#1740000
00
0)
#1750000
10
1)
#1760000
00
0)
#1770000
10
1)
#1780000
00
0)
#1790000
10
1)
#1800000
00
0)
#1810000
10
1)
#1820000
00
0)
#1830000
10
1)
#1840000
00
0)
#1850000
10
1)
#1860000
00
0)
#1870000
10
1)
#1880000
00
0)
#1890000
10
1)
#1900000
00
0)
#1910000
10
1)
#1920000
00
0)
#1930000
10
1)
#1940000
00
0)
#1950000
10
1)
#1960000
00
0)
#1970000
10
1)
#1980000
00
0)
#1990000
10
1)
#2000000
00
0)
#2010000
10
1)
#2020000
00
0)
#2030000
10
1)
#2040000
00
0)
#2050000
10
1)
#2060000
00
0)
#2070000
10
1)
#2080000
00
0)
#2090000
10
1)
#2100000
00
0)
#2110000
10
1)
#2120000
00
0)
#2130000
10
1)
#2140000
00
0)
#2150000
10
1)
#2160000
00
0)
#2170000
10
1)
#2180000
00
0)
#2190000
10
1)
#2200000
00
0)
#2210000
10
1)
#2220000
00
0)
#2230000
10
1)
#2240000
01
00
0)
b1 "
b1 -
b1 *
b1 ,
#2250000
0C
10
1)
#2260000
00
0)
#2270000
10
1)
#2280000
11
00
0)
b11 "
b11 -
b11 *
b11 ,
#2290000
1C
10
1)
